{
  "href": "https://api.spotify.com/v1/artists/0TnOYISbd1XYRBk9myaseg/albums?offset=0&limit=20&locale=en-US,en;q%3D0.5&include_groups=album,single,compilation,appears_on",
  "limit": 20,
  "next": "https://api.spotify.com/v1/artists/0TnOYISbd1XYRBk9myaseg/albums?offset=20&limit=20&locale=en-US,en;q%3D0.5&include_groups=album,single,compilation,appears_on",
  "offset": 0,
  "previous": null,
  "total": 903,
  "items": [
    {
      "album_type": "album",
      "total_tracks": 7,
      "external_urls": {
        "spotify": "https://open.spotify.com/album/56jg3KJcYmfL7RzYmG2O1Q"
      },
      "href": "https://api.spotify.com/v1/albums/56jg3KJcYmfL7RzYmG2O1Q",
      "id": "56jg3KJcYmfL7RzYmG2O1Q",
      "images": [
        {
          "url": "https://i.scdn.co/image/ab67616d0000b273a0bac1996f26274685db1520",
          "height": 640,
          "width": 640
        },
        {
          "url": "https://i.scdn.co/image/ab67616d00001e02a0bac1996f26274685db1520",
          "height": 300,
          "width": 300
        },
        {
          "url": "https://i.scdn.co/image/ab67616d00004851a0bac1996f26274685db1520",
          "height": 64,
          "width": 64
        }
      ],
      "name": "Trackhouse (Daytona 500 Edition)",
      "release_date": "2024-02-16",
      "release_date_precision": "day",
      "type": "album",
      "uri": "spotify:album:56jg3KJcYmfL7RzYmG2O1Q",
      "artists": [
        {
          "external_urls": {
            "spotify": "https://open.spotify.com/artist/0TnOYISbd1XYRBk9myaseg"
          },
          "href": "https://api.spotify.com/v1/artists/0TnOYISbd1XYRBk9myaseg",
          "id": "0TnOYISbd1XYRBk9myaseg",
          "name": "Pitbull",
          "type": "artist",
          "uri": "spotify:artist:0TnOYISbd1XYRBk9myaseg"
        }
      ],
      "album_group": "album"
    },
    {
      "album_type": "album",
      "total_tracks": 14,
      "external_urls": {
        "spotify": "https://open.spotify.com/album/1l86t4bTNT2j1X0ZBCIv6R"
      },
      "href": "https://api.spotify.com/v1/albums/1l86t4bTNT2j1X0ZBCIv6R",
      "id": "1l86t4bTNT2j1X0ZBCIv6R",
      "images": [
        {
          "url": "https://i.scdn.co/image/ab67616d0000b27333a4ba8f73271a749c5d953d",
          "height": 640,
          "width": 640
        },
        {
          "url": "https://i.scdn.co/image/ab67616d00001e0233a4ba8f73271a749c5d953d",
          "height": 300,
          "width": 300
        },
        {
          "url": "https://i.scdn.co/image/ab67616d0000485133a4ba8f73271a749c5d953d",
          "height": 64,
          "width": 64
        }
      ],
      "name": "Trackhouse",
      "release_date": "2023-10-06",
      "release_date_precision": "day",
      "type": "album",
      "uri": "spotify:album:1l86t4bTNT2j1X0ZBCIv6R",
      "artists": [
        {
          "external_urls": {
            "spotify": "https://open.spotify.com/artist/0TnOYISbd1XYRBk9myaseg"
          },
          "href": "https://api.spotify.com/v1/artists/0TnOYISbd1XYRBk9myaseg",
          "id": "0TnOYISbd1XYRBk9myaseg",
          "name": "Pitbull",
          "type": "artist",
          "uri": "spotify:artist:0TnOYISbd1XYRBk9myaseg"
        }
      ],
      "album_group": "album"
    }
  ]
}
