{
  "categories": {
    "href": "https://api.spotify.com/v1/browse/categories?offset=0&limit=20&locale=en-US,en;q%3D0.5",
    "items": [
      {
        "href": "https://api.spotify.com/v1/browse/categories/0JQ5DAt0tbjZptfcdMSKl3",
        "id": "0JQ5DAt0tbjZptfcdMSKl3",
        "icons": [
          {
            "height": 274,
            "url": "https://t.scdn.co/images/728ed47fc1674feb95f7ac20236eb6d7.jpeg",
            "width": 274
          }
        ],
        "name": "Made For You"
      },
      {
        "href": "https://api.spotify.com/v1/browse/categories/0JQ5DAqbMKFz6FAsUtgAab",
        "id": "0JQ5DAqbMKFz6FAsUtgAab",
        "icons": [
          {
            "height": 274,
            "url": "https://t.scdn.co/images/728ed47fc1674feb95f7ac20236eb6d7.jpeg",
            "width": 274
          }
        ],
        "name": "New Releases"
      }
    ],
    "limit": 20,
    "next": "https://api.spotify.com/v1/browse/categories?offset=20&limit=20&locale=en-US,en;q%3D0.5",
    "offset": 0,
    "previous": null,
    "total": 56
  }
}
