{
  "href": "https://api.spotify.com/v1/users/1112264649/playlists?offset=0&limit=20",
  "items": [
    {
      "collaborative": false,
      "description": "",
      "external_urls": {
        "spotify": "https://open.spotify.com/playlist/4WkWJ0EjHEFASDevhM8oPw"
      },
      "href": "https://api.spotify.com/v1/playlists/4WkWJ0EjHEFASDevhM8oPw",
      "id": "4WkWJ0EjHEFASDevhM8oPw",
      "images": [
        {
          "height": 640,
          "url": "https://i.scdn.co/image/ab67616d0000b273d061f5bfae8d38558f3698c1",
          "width": 640
        }
      ],
      "name": "Hyper",
      "owner": {
        "display_name": "Joost Lekkerkerker",
        "external_urls": {
          "spotify": "https://open.spotify.com/user/1112264649"
        },
        "href": "https://api.spotify.com/v1/users/1112264649",
        "id": "1112264649",
        "type": "user",
        "uri": "spotify:user:1112264649"
      },
      "primary_color": null,
      "public": true,
      "snapshot_id": "Myw2ZjkyN2Q1ZWEwMjU1YWJjM2EwOWQ5YzA2ZDJjYjIzNTEzNzVmYmVl",
      "tracks": {
        "href": "https://api.spotify.com/v1/playlists/4WkWJ0EjHEFASDevhM8oPw/tracks",
        "total": 1
      },
      "type": "playlist",
      "uri": "spotify:playlist:4WkWJ0EjHEFASDevhM8oPw"
    }
  ],
  "limit": 18,
  "next": "https://api.spotify.com/v1/users/1112264649/playlists?offset=18&limit=20",
  "offset": 0,
  "previous": null,
  "total": 101
}
