{
  "albums": {
    "href": "https://api.spotify.com/v1/browse/new-releases?offset=0&limit=20&locale=en-US,en;q%3D0.5",
    "items": [
      {
        "album_type": "album",
        "artists": [
          {
            "external_urls": {
              "spotify": "https://open.spotify.com/artist/4gzpq5DPGxSnKTe4SA8HAU"
            },
            "href": "https://api.spotify.com/v1/artists/4gzpq5DPGxSnKTe4SA8HAU",
            "id": "4gzpq5DPGxSnKTe4SA8HAU",
            "name": "Coldplay",
            "type": "artist",
            "uri": "spotify:artist:4gzpq5DPGxSnKTe4SA8HAU"
          }
        ],
        "available_markets": [
          "AR",
          "AU",
          "AT",
          "BE",
          "BO",
          "BR",
          "BG",
          "CA",
          "CL",
          "CO",
          "CR",
          "CY",
          "CZ",
          "DK",
          "DO",
          "DE",
          "EC",
          "EE",
          "SV",
          "FI",
          "FR",
          "GR",
          "GT",
          "HN",
          "HK",
          "HU",
          "IS",
          "IE",
          "IT",
          "LV",
          "LT",
          "LU",
          "MY",
          "MT",
          "MX",
          "NL",
          "NZ",
          "NI",
          "NO",
          "PA",
          "PY",
          "PE",
          "PH",
          "PL",
          "PT",
          "SG",
          "SK",
          "ES",
          "SE",
          "CH",
          "TW",
          "TR",
          "UY",
          "US",
          "GB",
          "AD",
          "LI",
          "MC",
          "ID",
          "JP",
          "TH",
          "VN",
          "RO",
          "IL",
          "ZA",
          "SA",
          "AE",
          "BH",
          "QA",
          "OM",
          "KW",
          "EG",
          "MA",
          "DZ",
          "TN",
          "LB",
          "JO",
          "PS",
          "IN",
          "KZ",
          "MD",
          "UA",
          "AL",
          "BA",
          "HR",
          "ME",
          "MK",
          "RS",
          "SI",
          "KR",
          "BD",
          "PK",
          "LK",
          "GH",
          "KE",
          "NG",
          "TZ",
          "UG",
          "AG",
          "AM",
          "BS",
          "BB",
          "BZ",
          "BT",
          "BW",
          "BF",
          "CV",
          "CW",
          "DM",
          "FJ",
          "GM",
          "GE",
          "GD",
          "GW",
          "GY",
          "HT",
          "JM",
          "KI",
          "LS",
          "LR",
          "MW",
          "MV",
          "ML",
          "MH",
          "FM",
          "NA",
          "NR",
          "NE",
          "PW",
          "PG",
          "PR",
          "WS",
          "SM",
          "ST",
          "SN",
          "SC",
          "SL",
          "SB",
          "KN",
          "LC",
          "VC",
          "SR",
          "TL",
          "TO",
          "TT",
          "TV",
          "VU",
          "AZ",
          "BN",
          "BI",
          "KH",
          "CM",
          "TD",
          "KM",
          "GQ",
          "SZ",
          "GA",
          "GN",
          "KG",
          "LA",
          "MO",
          "MR",
          "MN",
          "NP",
          "RW",
          "TG",
          "UZ",
          "ZW",
          "BJ",
          "MG",
          "MU",
          "MZ",
          "AO",
          "CI",
          "DJ",
          "ZM",
          "CD",
          "CG",
          "IQ",
          "LY",
          "TJ",
          "VE",
          "ET",
          "XK"
        ],
        "external_urls": {
          "spotify": "https://open.spotify.com/album/5SGtrmYbIo0Dsg4kJ4qjM6"
        },
        "href": "https://api.spotify.com/v1/albums/5SGtrmYbIo0Dsg4kJ4qjM6",
        "id": "5SGtrmYbIo0Dsg4kJ4qjM6",
        "images": [
          {
            "height": 300,
            "url": "https://i.scdn.co/image/ab67616d00001e0209ba52a5116e0c3e8461f58b",
            "width": 300
          },
          {
            "height": 64,
            "url": "https://i.scdn.co/image/ab67616d0000485109ba52a5116e0c3e8461f58b",
            "width": 64
          },
          {
            "height": 640,
            "url": "https://i.scdn.co/image/ab67616d0000b27309ba52a5116e0c3e8461f58b",
            "width": 640
          }
        ],
        "name": "Moon Music",
        "release_date": "2024-10-04",
        "release_date_precision": "day",
        "total_tracks": 10,
        "type": "album",
        "uri": "spotify:album:5SGtrmYbIo0Dsg4kJ4qjM6"
      },
      {
        "album_type": "album",
        "artists": [
          {
            "external_urls": {
              "spotify": "https://open.spotify.com/artist/4U9nsRTH2mr9L4UXEWqG5e"
            },
            "href": "https://api.spotify.com/v1/artists/4U9nsRTH2mr9L4UXEWqG5e",
            "id": "4U9nsRTH2mr9L4UXEWqG5e",
            "name": "Bente",
            "type": "artist",
            "uri": "spotify:artist:4U9nsRTH2mr9L4UXEWqG5e"
          }
        ],
        "available_markets": [
          "AR",
          "AU",
          "AT",
          "BE",
          "BO",
          "BR",
          "BG",
          "CA",
          "CL",
          "CO",
          "CR",
          "CY",
          "CZ",
          "DK",
          "DO",
          "DE",
          "EC",
          "EE",
          "SV",
          "FI",
          "FR",
          "GR",
          "GT",
          "HN",
          "HK",
          "HU",
          "IS",
          "IE",
          "IT",
          "LV",
          "LT",
          "LU",
          "MY",
          "MT",
          "MX",
          "NL",
          "NZ",
          "NI",
          "NO",
          "PA",
          "PY",
          "PE",
          "PH",
          "PL",
          "PT",
          "SG",
          "SK",
          "ES",
          "SE",
          "CH",
          "TW",
          "TR",
          "UY",
          "US",
          "GB",
          "AD",
          "LI",
          "MC",
          "ID",
          "JP",
          "TH",
          "VN",
          "RO",
          "IL",
          "ZA",
          "SA",
          "AE",
          "BH",
          "QA",
          "OM",
          "KW",
          "EG",
          "MA",
          "DZ",
          "TN",
          "LB",
          "JO",
          "PS",
          "IN",
          "KZ",
          "MD",
          "UA",
          "AL",
          "BA",
          "HR",
          "ME",
          "MK",
          "RS",
          "SI",
          "KR",
          "BD",
          "PK",
          "LK",
          "GH",
          "KE",
          "NG",
          "TZ",
          "UG",
          "AG",
          "AM",
          "BS",
          "BB",
          "BZ",
          "BT",
          "BW",
          "BF",
          "CV",
          "CW",
          "DM",
          "FJ",
          "GM",
          "GE",
          "GD",
          "GW",
          "GY",
          "HT",
          "JM",
          "KI",
          "LS",
          "LR",
          "MW",
          "MV",
          "ML",
          "MH",
          "FM",
          "NA",
          "NR",
          "NE",
          "PW",
          "PG",
          "WS",
          "SM",
          "ST",
          "SN",
          "SC",
          "SL",
          "SB",
          "KN",
          "LC",
          "VC",
          "SR",
          "TL",
          "TO",
          "TT",
          "TV",
          "VU",
          "AZ",
          "BN",
          "BI",
          "KH",
          "CM",
          "TD",
          "KM",
          "GQ",
          "SZ",
          "GA",
          "GN",
          "KG",
          "LA",
          "MO",
          "MR",
          "MN",
          "NP",
          "RW",
          "TG",
          "UZ",
          "ZW",
          "BJ",
          "MG",
          "MU",
          "MZ",
          "AO",
          "CI",
          "DJ",
          "ZM",
          "CD",
          "CG",
          "IQ",
          "LY",
          "TJ",
          "VE",
          "ET",
          "XK"
        ],
        "external_urls": {
          "spotify": "https://open.spotify.com/album/713lZ7AF55fEFSQgcttj9y"
        },
        "href": "https://api.spotify.com/v1/albums/713lZ7AF55fEFSQgcttj9y",
        "id": "713lZ7AF55fEFSQgcttj9y",
        "images": [
          {
            "height": 300,
            "url": "https://i.scdn.co/image/ab67616d00001e02ab9953b1d18f8233f6b26027",
            "width": 300
          },
          {
            "height": 64,
            "url": "https://i.scdn.co/image/ab67616d00004851ab9953b1d18f8233f6b26027",
            "width": 64
          },
          {
            "height": 640,
            "url": "https://i.scdn.co/image/ab67616d0000b273ab9953b1d18f8233f6b26027",
            "width": 640
          }
        ],
        "name": "drift",
        "release_date": "2024-10-03",
        "release_date_precision": "day",
        "total_tracks": 14,
        "type": "album",
        "uri": "spotify:album:713lZ7AF55fEFSQgcttj9y"
      }
    ],
    "limit": 20,
    "next": "https://api.spotify.com/v1/browse/new-releases?offset=20&limit=20&locale=en-US,en;q%3D0.5",
    "offset": 0,
    "previous": null,
    "total": 100
  }
}
