{
  "href": "https://api.spotify.com/v1/me/albums?offset=0&limit=20&locale=en-US,en;q%3D0.5",
  "items": [
    {
      "added_at": "2024-09-19T22:00:00Z",
      "album": {
        "album_type": "album",
        "total_tracks": 12,
        "external_urls": {
          "spotify": "https://open.spotify.com/album/57MSBg5pBQZH5bfLVDmeuP"
        },
        "href": "https://api.spotify.com/v1/albums/57MSBg5pBQZH5bfLVDmeuP?locale=en-US%2Cen%3Bq%3D0.5",
        "id": "57MSBg5pBQZH5bfLVDmeuP",
        "images": [
          {
            "url": "https://i.scdn.co/image/ab67616d0000b2733126a95bb7ed4146a80c7fc6",
            "height": 640,
            "width": 640
          },
          {
            "url": "https://i.scdn.co/image/ab67616d00001e023126a95bb7ed4146a80c7fc6",
            "height": 300,
            "width": 300
          },
          {
            "url": "https://i.scdn.co/image/ab67616d000048513126a95bb7ed4146a80c7fc6",
            "height": 64,
            "width": 64
          }
        ],
        "name": "In Waves",
        "release_date": "2024-09-20",
        "release_date_precision": "day",
        "type": "album",
        "uri": "spotify:album:57MSBg5pBQZH5bfLVDmeuP",
        "artists": [
          {
            "external_urls": {
              "spotify": "https://open.spotify.com/artist/7A0awCXkE1FtSU8B0qwOJQ"
            },
            "href": "https://api.spotify.com/v1/artists/7A0awCXkE1FtSU8B0qwOJQ",
            "id": "7A0awCXkE1FtSU8B0qwOJQ",
            "name": "Jamie xx",
            "type": "artist",
            "uri": "spotify:artist:7A0awCXkE1FtSU8B0qwOJQ"
          }
        ],
        "tracks": {
          "href": "https://api.spotify.com/v1/albums/57MSBg5pBQZH5bfLVDmeuP/tracks?offset=0&limit=50&locale=en-US,en;q%3D0.5",
          "limit": 50,
          "next": null,
          "offset": 0,
          "previous": null,
          "total": 12,
          "items": [
            {
              "artists": [
                {
                  "external_urls": {
                    "spotify": "https://open.spotify.com/artist/7A0awCXkE1FtSU8B0qwOJQ"
                  },
                  "href": "https://api.spotify.com/v1/artists/7A0awCXkE1FtSU8B0qwOJQ",
                  "id": "7A0awCXkE1FtSU8B0qwOJQ",
                  "name": "Jamie xx",
                  "type": "artist",
                  "uri": "spotify:artist:7A0awCXkE1FtSU8B0qwOJQ"
                }
              ],
              "disc_number": 1,
              "duration_ms": 135835,
              "explicit": false,
              "external_urls": {
                "spotify": "https://open.spotify.com/track/7uLBdV19ad7kAjU2oB1l6p"
              },
              "href": "https://api.spotify.com/v1/tracks/7uLBdV19ad7kAjU2oB1l6p",
              "id": "7uLBdV19ad7kAjU2oB1l6p",
              "name": "Wanna",
              "preview_url": "https://p.scdn.co/mp3-preview/fc112f83fe770b09e4c1bd586e5b9c144e384bd7?cid=cfe923b2d660439caf2b557b21f31221",
              "track_number": 1,
              "type": "track",
              "uri": "spotify:track:7uLBdV19ad7kAjU2oB1l6p",
              "is_local": false
            },
            {
              "artists": [
                {
                  "external_urls": {
                    "spotify": "https://open.spotify.com/artist/7A0awCXkE1FtSU8B0qwOJQ"
                  },
                  "href": "https://api.spotify.com/v1/artists/7A0awCXkE1FtSU8B0qwOJQ",
                  "id": "7A0awCXkE1FtSU8B0qwOJQ",
                  "name": "Jamie xx",
                  "type": "artist",
                  "uri": "spotify:artist:7A0awCXkE1FtSU8B0qwOJQ"
                }
              ],
              "disc_number": 1,
              "duration_ms": 240580,
              "explicit": false,
              "external_urls": {
                "spotify": "https://open.spotify.com/track/3pjX4hC8adabkXGu3X9GTC"
              },
              "href": "https://api.spotify.com/v1/tracks/3pjX4hC8adabkXGu3X9GTC",
              "id": "3pjX4hC8adabkXGu3X9GTC",
              "name": "Treat Each Other Right",
              "preview_url": "https://p.scdn.co/mp3-preview/a518fdb34284daa9a2298fd5491d6cede24a3e01?cid=cfe923b2d660439caf2b557b21f31221",
              "track_number": 2,
              "type": "track",
              "uri": "spotify:track:3pjX4hC8adabkXGu3X9GTC",
              "is_local": false
            },
            {
              "artists": [
                {
                  "external_urls": {
                    "spotify": "https://open.spotify.com/artist/7A0awCXkE1FtSU8B0qwOJQ"
                  },
                  "href": "https://api.spotify.com/v1/artists/7A0awCXkE1FtSU8B0qwOJQ",
                  "id": "7A0awCXkE1FtSU8B0qwOJQ",
                  "name": "Jamie xx",
                  "type": "artist",
                  "uri": "spotify:artist:7A0awCXkE1FtSU8B0qwOJQ"
                },
                {
                  "external_urls": {
                    "spotify": "https://open.spotify.com/artist/3X2DdnmoANw8Rg8luHyZQb"
                  },
                  "href": "https://api.spotify.com/v1/artists/3X2DdnmoANw8Rg8luHyZQb",
                  "id": "3X2DdnmoANw8Rg8luHyZQb",
                  "name": "Romy",
                  "type": "artist",
                  "uri": "spotify:artist:3X2DdnmoANw8Rg8luHyZQb"
                },
                {
                  "external_urls": {
                    "spotify": "https://open.spotify.com/artist/4KDu9uqzqseVCpQXMa8Pvm"
                  },
                  "href": "https://api.spotify.com/v1/artists/4KDu9uqzqseVCpQXMa8Pvm",
                  "id": "4KDu9uqzqseVCpQXMa8Pvm",
                  "name": "Oliver Sim",
                  "type": "artist",
                  "uri": "spotify:artist:4KDu9uqzqseVCpQXMa8Pvm"
                },
                {
                  "external_urls": {
                    "spotify": "https://open.spotify.com/artist/3iOvXCl6edW5Um0fXEBRXy"
                  },
                  "href": "https://api.spotify.com/v1/artists/3iOvXCl6edW5Um0fXEBRXy",
                  "id": "3iOvXCl6edW5Um0fXEBRXy",
                  "name": "The xx",
                  "type": "artist",
                  "uri": "spotify:artist:3iOvXCl6edW5Um0fXEBRXy"
                }
              ],
              "disc_number": 1,
              "duration_ms": 208334,
              "explicit": false,
              "external_urls": {
                "spotify": "https://open.spotify.com/track/4gBniy3TwR9o2JDBx48TlD"
              },
              "href": "https://api.spotify.com/v1/tracks/4gBniy3TwR9o2JDBx48TlD",
              "id": "4gBniy3TwR9o2JDBx48TlD",
              "name": "Waited All Night",
              "preview_url": "https://p.scdn.co/mp3-preview/b7820ac10349ca374242240f69887c073a4980f2?cid=cfe923b2d660439caf2b557b21f31221",
              "track_number": 3,
              "type": "track",
              "uri": "spotify:track:4gBniy3TwR9o2JDBx48TlD",
              "is_local": false
            },
            {
              "artists": [
                {
                  "external_urls": {
                    "spotify": "https://open.spotify.com/artist/7A0awCXkE1FtSU8B0qwOJQ"
                  },
                  "href": "https://api.spotify.com/v1/artists/7A0awCXkE1FtSU8B0qwOJQ",
                  "id": "7A0awCXkE1FtSU8B0qwOJQ",
                  "name": "Jamie xx",
                  "type": "artist",
                  "uri": "spotify:artist:7A0awCXkE1FtSU8B0qwOJQ"
                },
                {
                  "external_urls": {
                    "spotify": "https://open.spotify.com/artist/0XfQBWgzisaS9ltDV9bXAS"
                  },
                  "href": "https://api.spotify.com/v1/artists/0XfQBWgzisaS9ltDV9bXAS",
                  "id": "0XfQBWgzisaS9ltDV9bXAS",
                  "name": "Honey Dijon",
                  "type": "artist",
                  "uri": "spotify:artist:0XfQBWgzisaS9ltDV9bXAS"
                }
              ],
              "disc_number": 1,
              "duration_ms": 222315,
              "explicit": true,
              "external_urls": {
                "spotify": "https://open.spotify.com/track/79gWc6dZ1dXH7rC67DTunz"
              },
              "href": "https://api.spotify.com/v1/tracks/79gWc6dZ1dXH7rC67DTunz",
              "id": "79gWc6dZ1dXH7rC67DTunz",
              "name": "Baddy On The Floor",
              "preview_url": "https://p.scdn.co/mp3-preview/c260664dd5adc2290fce52cb51aa8667e39c2118?cid=cfe923b2d660439caf2b557b21f31221",
              "track_number": 4,
              "type": "track",
              "uri": "spotify:track:79gWc6dZ1dXH7rC67DTunz",
              "is_local": false
            },
            {
              "artists": [
                {
                  "external_urls": {
                    "spotify": "https://open.spotify.com/artist/7A0awCXkE1FtSU8B0qwOJQ"
                  },
                  "href": "https://api.spotify.com/v1/artists/7A0awCXkE1FtSU8B0qwOJQ",
                  "id": "7A0awCXkE1FtSU8B0qwOJQ",
                  "name": "Jamie xx",
                  "type": "artist",
                  "uri": "spotify:artist:7A0awCXkE1FtSU8B0qwOJQ"
                },
                {
                  "external_urls": {
                    "spotify": "https://open.spotify.com/artist/0fEfMW5bypHZ0A8eLnhwj5"
                  },
                  "href": "https://api.spotify.com/v1/artists/0fEfMW5bypHZ0A8eLnhwj5",
                  "id": "0fEfMW5bypHZ0A8eLnhwj5",
                  "name": "Kelsey Lu",
                  "type": "artist",
                  "uri": "spotify:artist:0fEfMW5bypHZ0A8eLnhwj5"
                },
                {
                  "external_urls": {
                    "spotify": "https://open.spotify.com/artist/0FNfiTQCR5o3ounOlWzm1d"
                  },
                  "href": "https://api.spotify.com/v1/artists/0FNfiTQCR5o3ounOlWzm1d",
                  "id": "0FNfiTQCR5o3ounOlWzm1d",
                  "name": "John Glacier",
                  "type": "artist",
                  "uri": "spotify:artist:0FNfiTQCR5o3ounOlWzm1d"
                },
                {
                  "external_urls": {
                    "spotify": "https://open.spotify.com/artist/1R84VlXnFFULOsWWV8IrCQ"
                  },
                  "href": "https://api.spotify.com/v1/artists/1R84VlXnFFULOsWWV8IrCQ",
                  "id": "1R84VlXnFFULOsWWV8IrCQ",
                  "name": "Panda Bear",
                  "type": "artist",
                  "uri": "spotify:artist:1R84VlXnFFULOsWWV8IrCQ"
                }
              ],
              "disc_number": 1,
              "duration_ms": 212339,
              "explicit": false,
              "external_urls": {
                "spotify": "https://open.spotify.com/track/1gRMKwvMvp6LcQVMpMXQg2"
              },
              "href": "https://api.spotify.com/v1/tracks/1gRMKwvMvp6LcQVMpMXQg2",
              "id": "1gRMKwvMvp6LcQVMpMXQg2",
              "name": "Dafodil",
              "preview_url": "https://p.scdn.co/mp3-preview/173fad98e5e51a6cfb02b3cb394ab46c70d44303?cid=cfe923b2d660439caf2b557b21f31221",
              "track_number": 5,
              "type": "track",
              "uri": "spotify:track:1gRMKwvMvp6LcQVMpMXQg2",
              "is_local": false
            },
            {
              "artists": [
                {
                  "external_urls": {
                    "spotify": "https://open.spotify.com/artist/7A0awCXkE1FtSU8B0qwOJQ"
                  },
                  "href": "https://api.spotify.com/v1/artists/7A0awCXkE1FtSU8B0qwOJQ",
                  "id": "7A0awCXkE1FtSU8B0qwOJQ",
                  "name": "Jamie xx",
                  "type": "artist",
                  "uri": "spotify:artist:7A0awCXkE1FtSU8B0qwOJQ"
                }
              ],
              "disc_number": 1,
              "duration_ms": 205638,
              "explicit": false,
              "external_urls": {
                "spotify": "https://open.spotify.com/track/27D9YN3uHPD3PTXvzNtbto"
              },
              "href": "https://api.spotify.com/v1/tracks/27D9YN3uHPD3PTXvzNtbto",
              "id": "27D9YN3uHPD3PTXvzNtbto",
              "name": "Still Summer",
              "preview_url": "https://p.scdn.co/mp3-preview/e959ae6394e9d19e00cd474ed2b76bb43b6063d9?cid=cfe923b2d660439caf2b557b21f31221",
              "track_number": 6,
              "type": "track",
              "uri": "spotify:track:27D9YN3uHPD3PTXvzNtbto",
              "is_local": false
            },
            {
              "artists": [
                {
                  "external_urls": {
                    "spotify": "https://open.spotify.com/artist/7A0awCXkE1FtSU8B0qwOJQ"
                  },
                  "href": "https://api.spotify.com/v1/artists/7A0awCXkE1FtSU8B0qwOJQ",
                  "id": "7A0awCXkE1FtSU8B0qwOJQ",
                  "name": "Jamie xx",
                  "type": "artist",
                  "uri": "spotify:artist:7A0awCXkE1FtSU8B0qwOJQ"
                },
                {
                  "external_urls": {
                    "spotify": "https://open.spotify.com/artist/6UE7nl9mha6s8z0wFQFIZ2"
                  },
                  "href": "https://api.spotify.com/v1/artists/6UE7nl9mha6s8z0wFQFIZ2",
                  "id": "6UE7nl9mha6s8z0wFQFIZ2",
                  "name": "Robyn",
                  "type": "artist",
                  "uri": "spotify:artist:6UE7nl9mha6s8z0wFQFIZ2"
                }
              ],
              "disc_number": 1,
              "duration_ms": 202648,
              "explicit": true,
              "external_urls": {
                "spotify": "https://open.spotify.com/track/0pMj03SiaZ9bkFlXQWNhtZ"
              },
              "href": "https://api.spotify.com/v1/tracks/0pMj03SiaZ9bkFlXQWNhtZ",
              "id": "0pMj03SiaZ9bkFlXQWNhtZ",
              "name": "Life",
              "preview_url": "https://p.scdn.co/mp3-preview/261bc3bd3192ef4158b1ca42e95262113241a326?cid=cfe923b2d660439caf2b557b21f31221",
              "track_number": 7,
              "type": "track",
              "uri": "spotify:track:0pMj03SiaZ9bkFlXQWNhtZ",
              "is_local": false
            },
            {
              "artists": [
                {
                  "external_urls": {
                    "spotify": "https://open.spotify.com/artist/7A0awCXkE1FtSU8B0qwOJQ"
                  },
                  "href": "https://api.spotify.com/v1/artists/7A0awCXkE1FtSU8B0qwOJQ",
                  "id": "7A0awCXkE1FtSU8B0qwOJQ",
                  "name": "Jamie xx",
                  "type": "artist",
                  "uri": "spotify:artist:7A0awCXkE1FtSU8B0qwOJQ"
                }
              ],
              "disc_number": 1,
              "duration_ms": 222365,
              "explicit": false,
              "external_urls": {
                "spotify": "https://open.spotify.com/track/7gb0pekqHQYTGo6NWLBvT5"
              },
              "href": "https://api.spotify.com/v1/tracks/7gb0pekqHQYTGo6NWLBvT5",
              "id": "7gb0pekqHQYTGo6NWLBvT5",
              "name": "The Feeling I Get From You",
              "preview_url": "https://p.scdn.co/mp3-preview/da24fadc4bca20394435e53f5d61e8f6c36f9614?cid=cfe923b2d660439caf2b557b21f31221",
              "track_number": 8,
              "type": "track",
              "uri": "spotify:track:7gb0pekqHQYTGo6NWLBvT5",
              "is_local": false
            },
            {
              "artists": [
                {
                  "external_urls": {
                    "spotify": "https://open.spotify.com/artist/7A0awCXkE1FtSU8B0qwOJQ"
                  },
                  "href": "https://api.spotify.com/v1/artists/7A0awCXkE1FtSU8B0qwOJQ",
                  "id": "7A0awCXkE1FtSU8B0qwOJQ",
                  "name": "Jamie xx",
                  "type": "artist",
                  "uri": "spotify:artist:7A0awCXkE1FtSU8B0qwOJQ"
                }
              ],
              "disc_number": 1,
              "duration_ms": 376918,
              "explicit": false,
              "external_urls": {
                "spotify": "https://open.spotify.com/track/6pOzbdJKEr4hvXkX7VkfY6"
              },
              "href": "https://api.spotify.com/v1/tracks/6pOzbdJKEr4hvXkX7VkfY6",
              "id": "6pOzbdJKEr4hvXkX7VkfY6",
              "name": "Breather",
              "preview_url": "https://p.scdn.co/mp3-preview/dc7cd612c205968f5d6cb32696305656ae7ad888?cid=cfe923b2d660439caf2b557b21f31221",
              "track_number": 9,
              "type": "track",
              "uri": "spotify:track:6pOzbdJKEr4hvXkX7VkfY6",
              "is_local": false
            },
            {
              "artists": [
                {
                  "external_urls": {
                    "spotify": "https://open.spotify.com/artist/7A0awCXkE1FtSU8B0qwOJQ"
                  },
                  "href": "https://api.spotify.com/v1/artists/7A0awCXkE1FtSU8B0qwOJQ",
                  "id": "7A0awCXkE1FtSU8B0qwOJQ",
                  "name": "Jamie xx",
                  "type": "artist",
                  "uri": "spotify:artist:7A0awCXkE1FtSU8B0qwOJQ"
                },
                {
                  "external_urls": {
                    "spotify": "https://open.spotify.com/artist/3C8RpaI3Go0yFF9whvKoED"
                  },
                  "href": "https://api.spotify.com/v1/artists/3C8RpaI3Go0yFF9whvKoED",
                  "id": "3C8RpaI3Go0yFF9whvKoED",
                  "name": "The Avalanches",
                  "type": "artist",
                  "uri": "spotify:artist:3C8RpaI3Go0yFF9whvKoED"
                }
              ],
              "disc_number": 1,
              "duration_ms": 254142,
              "explicit": false,
              "external_urls": {
                "spotify": "https://open.spotify.com/track/3cfgisz6DhZmooQk08P4Eu"
              },
              "href": "https://api.spotify.com/v1/tracks/3cfgisz6DhZmooQk08P4Eu",
              "id": "3cfgisz6DhZmooQk08P4Eu",
              "name": "All You Children",
              "preview_url": "https://p.scdn.co/mp3-preview/ff3fc064f340e47347d4677332daf6da8155ae38?cid=cfe923b2d660439caf2b557b21f31221",
              "track_number": 10,
              "type": "track",
              "uri": "spotify:track:3cfgisz6DhZmooQk08P4Eu",
              "is_local": false
            },
            {
              "artists": [
                {
                  "external_urls": {
                    "spotify": "https://open.spotify.com/artist/7A0awCXkE1FtSU8B0qwOJQ"
                  },
                  "href": "https://api.spotify.com/v1/artists/7A0awCXkE1FtSU8B0qwOJQ",
                  "id": "7A0awCXkE1FtSU8B0qwOJQ",
                  "name": "Jamie xx",
                  "type": "artist",
                  "uri": "spotify:artist:7A0awCXkE1FtSU8B0qwOJQ"
                }
              ],
              "disc_number": 1,
              "duration_ms": 71680,
              "explicit": false,
              "external_urls": {
                "spotify": "https://open.spotify.com/track/1wpcJ6TCrKpH6KdBmrp9yN"
              },
              "href": "https://api.spotify.com/v1/tracks/1wpcJ6TCrKpH6KdBmrp9yN",
              "id": "1wpcJ6TCrKpH6KdBmrp9yN",
              "name": "Every Single Weekend - Interlude",
              "preview_url": "https://p.scdn.co/mp3-preview/2c46e4cea66da846807b70c7974d19b7837eba52?cid=cfe923b2d660439caf2b557b21f31221",
              "track_number": 11,
              "type": "track",
              "uri": "spotify:track:1wpcJ6TCrKpH6KdBmrp9yN",
              "is_local": false
            },
            {
              "artists": [
                {
                  "external_urls": {
                    "spotify": "https://open.spotify.com/artist/7A0awCXkE1FtSU8B0qwOJQ"
                  },
                  "href": "https://api.spotify.com/v1/artists/7A0awCXkE1FtSU8B0qwOJQ",
                  "id": "7A0awCXkE1FtSU8B0qwOJQ",
                  "name": "Jamie xx",
                  "type": "artist",
                  "uri": "spotify:artist:7A0awCXkE1FtSU8B0qwOJQ"
                },
                {
                  "external_urls": {
                    "spotify": "https://open.spotify.com/artist/2Q4FR4Ss0mh6EvbiQBHEOU"
                  },
                  "href": "https://api.spotify.com/v1/artists/2Q4FR4Ss0mh6EvbiQBHEOU",
                  "id": "2Q4FR4Ss0mh6EvbiQBHEOU",
                  "name": "Oona Doherty",
                  "type": "artist",
                  "uri": "spotify:artist:2Q4FR4Ss0mh6EvbiQBHEOU"
                }
              ],
              "disc_number": 1,
              "duration_ms": 337414,
              "explicit": true,
              "external_urls": {
                "spotify": "https://open.spotify.com/track/08Jhu8OZ6gCIGWQn6vP3uI"
              },
              "href": "https://api.spotify.com/v1/tracks/08Jhu8OZ6gCIGWQn6vP3uI",
              "id": "08Jhu8OZ6gCIGWQn6vP3uI",
              "name": "Falling Together",
              "preview_url": "https://p.scdn.co/mp3-preview/2fa5fc5e733495719170f672a07b172bf678a89f?cid=cfe923b2d660439caf2b557b21f31221",
              "track_number": 12,
              "type": "track",
              "uri": "spotify:track:08Jhu8OZ6gCIGWQn6vP3uI",
              "is_local": false
            }
          ]
        },
        "copyrights": [
          {
            "text": "2024 Young",
            "type": "C"
          },
          {
            "text": "2024 Young",
            "type": "P"
          }
        ],
        "external_ids": {
          "upc": "889030035653"
        },
        "genres": [],
        "label": "Young",
        "popularity": 73
      }
    },
    {
      "added_at": "2024-09-05T22:00:00Z",
      "album": {
        "album_type": "album",
        "total_tracks": 20,
        "external_urls": {
          "spotify": "https://open.spotify.com/album/3DQueEd1Ft9PHWgovDzPKh"
        },
        "href": "https://api.spotify.com/v1/albums/3DQueEd1Ft9PHWgovDzPKh?locale=en-US%2Cen%3Bq%3D0.5",
        "id": "3DQueEd1Ft9PHWgovDzPKh",
        "images": [
          {
            "url": "https://i.scdn.co/image/ab67616d0000b2736b8a4828e057b7dc1c4a4d39",
            "height": 640,
            "width": 640
          },
          {
            "url": "https://i.scdn.co/image/ab67616d00001e026b8a4828e057b7dc1c4a4d39",
            "height": 300,
            "width": 300
          },
          {
            "url": "https://i.scdn.co/image/ab67616d000048516b8a4828e057b7dc1c4a4d39",
            "height": 64,
            "width": 64
          }
        ],
        "name": "ten days",
        "release_date": "2024-09-06",
        "release_date_precision": "day",
        "type": "album",
        "uri": "spotify:album:3DQueEd1Ft9PHWgovDzPKh",
        "artists": [
          {
            "external_urls": {
              "spotify": "https://open.spotify.com/artist/4oLeXFyACqeem2VImYeBFe"
            },
            "href": "https://api.spotify.com/v1/artists/4oLeXFyACqeem2VImYeBFe",
            "id": "4oLeXFyACqeem2VImYeBFe",
            "name": "Fred again..",
            "type": "artist",
            "uri": "spotify:artist:4oLeXFyACqeem2VImYeBFe"
          }
        ],
        "tracks": {
          "href": "https://api.spotify.com/v1/albums/3DQueEd1Ft9PHWgovDzPKh/tracks?offset=0&limit=50&locale=en-US,en;q%3D0.5",
          "limit": 50,
          "next": null,
          "offset": 0,
          "previous": null,
          "total": 20,
          "items": [
            {
              "artists": [
                {
                  "external_urls": {
                    "spotify": "https://open.spotify.com/artist/4oLeXFyACqeem2VImYeBFe"
                  },
                  "href": "https://api.spotify.com/v1/artists/4oLeXFyACqeem2VImYeBFe",
                  "id": "4oLeXFyACqeem2VImYeBFe",
                  "name": "Fred again..",
                  "type": "artist",
                  "uri": "spotify:artist:4oLeXFyACqeem2VImYeBFe"
                }
              ],
              "disc_number": 1,
              "duration_ms": 30857,
              "explicit": false,
              "external_urls": {
                "spotify": "https://open.spotify.com/track/00nDbqJkHBGUFdim9M0xGc"
              },
              "href": "https://api.spotify.com/v1/tracks/00nDbqJkHBGUFdim9M0xGc",
              "id": "00nDbqJkHBGUFdim9M0xGc",
              "name": ".one",
              "preview_url": "https://p.scdn.co/mp3-preview/52224422e178fa35baa9ffbf097372b7031fbecf?cid=cfe923b2d660439caf2b557b21f31221",
              "track_number": 1,
              "type": "track",
              "uri": "spotify:track:00nDbqJkHBGUFdim9M0xGc",
              "is_local": false
            },
            {
              "artists": [
                {
                  "external_urls": {
                    "spotify": "https://open.spotify.com/artist/4oLeXFyACqeem2VImYeBFe"
                  },
                  "href": "https://api.spotify.com/v1/artists/4oLeXFyACqeem2VImYeBFe",
                  "id": "4oLeXFyACqeem2VImYeBFe",
                  "name": "Fred again..",
                  "type": "artist",
                  "uri": "spotify:artist:4oLeXFyACqeem2VImYeBFe"
                },
                {
                  "external_urls": {
                    "spotify": "https://open.spotify.com/artist/6l7R1jntPahGxwJt7Tky8h"
                  },
                  "href": "https://api.spotify.com/v1/artists/6l7R1jntPahGxwJt7Tky8h",
                  "id": "6l7R1jntPahGxwJt7Tky8h",
                  "name": "Obongjayar",
                  "type": "artist",
                  "uri": "spotify:artist:6l7R1jntPahGxwJt7Tky8h"
                }
              ],
              "disc_number": 1,
              "duration_ms": 220653,
              "explicit": false,
              "external_urls": {
                "spotify": "https://open.spotify.com/track/1rf4SX7dduNbrNnOmupLzi"
              },
              "href": "https://api.spotify.com/v1/tracks/1rf4SX7dduNbrNnOmupLzi",
              "id": "1rf4SX7dduNbrNnOmupLzi",
              "name": "adore u",
              "preview_url": "https://p.scdn.co/mp3-preview/49ddf22bfe3925899cbb9ecf5d5157525becdcb4?cid=cfe923b2d660439caf2b557b21f31221",
              "track_number": 2,
              "type": "track",
              "uri": "spotify:track:1rf4SX7dduNbrNnOmupLzi",
              "is_local": false
            }
          ]
        },
        "copyrights": [
          {
            "text": "Under exclusive licence to Warner Music UK Limited. An Atlantic Records UK., © 2024 Fred Gibson",
            "type": "C"
          },
          {
            "text": "Under exclusive licence to Warner Music UK Limited. An Atlantic Records UK., ℗ 2024 Fred Gibson",
            "type": "P"
          }
        ],
        "external_ids": {
          "upc": "5021732457110"
        },
        "genres": [],
        "label": "Atlantic Records UK",
        "popularity": 80
      }
    }
  ],
  "limit": 20,
  "next": "https://api.spotify.com/v1/me/albums?offset=20&limit=20&locale=en-US,en;q%3D0.5",
  "offset": 0,
  "previous": null,
  "total": 34
}
