{
  "href": "https://api.spotify.com/v1/me/tracks?offset=0&limit=20&locale=en-US,en;q%3D0.5",
  "items": [
    {
      "added_at": "2024-10-06T11:35:02Z",
      "track": {
        "album": {
          "album_type": "single",
          "artists": [
            {
              "external_urls": {
                "spotify": "https://open.spotify.com/artist/7zrkALJ9ayRjzysp4QYoEg"
              },
              "href": "https://api.spotify.com/v1/artists/7zrkALJ9ayRjzysp4QYoEg",
              "id": "7zrkALJ9ayRjzysp4QYoEg",
              "name": "Maribou State",
              "type": "artist",
              "uri": "spotify:artist:7zrkALJ9ayRjzysp4QYoEg"
            },
            {
              "external_urls": {
                "spotify": "https://open.spotify.com/artist/5vssQp6TyMHsx4mihKVAsC"
              },
              "href": "https://api.spotify.com/v1/artists/5vssQp6TyMHsx4mihKVAsC",
              "id": "5vssQp6TyMHsx4mihKVAsC",
              "name": "Holly Walker",
              "type": "artist",
              "uri": "spotify:artist:5vssQp6TyMHsx4mihKVAsC"
            }
          ],
          "available_markets": [
            "AR",
            "AU",
            "AT",
            "BE",
            "BO",
            "BR",
            "BG",
            "CA",
            "CL",
            "CO",
            "CR",
            "CY",
            "CZ",
            "DK",
            "DO",
            "DE",
            "EC",
            "EE",
            "SV",
            "FI",
            "FR",
            "GR",
            "GT",
            "HN",
            "HK",
            "HU",
            "IS",
            "IE",
            "IT",
            "LV",
            "LT",
            "LU",
            "MY",
            "MT",
            "MX",
            "NL",
            "NZ",
            "NI",
            "NO",
            "PA",
            "PY",
            "PE",
            "PH",
            "PL",
            "PT",
            "SG",
            "SK",
            "ES",
            "SE",
            "CH",
            "TW",
            "TR",
            "UY",
            "US",
            "GB",
            "AD",
            "LI",
            "MC",
            "ID",
            "JP",
            "TH",
            "VN",
            "RO",
            "IL",
            "ZA",
            "SA",
            "AE",
            "BH",
            "QA",
            "OM",
            "KW",
            "EG",
            "MA",
            "DZ",
            "TN",
            "LB",
            "JO",
            "PS",
            "IN",
            "BY",
            "KZ",
            "MD",
            "UA",
            "AL",
            "BA",
            "HR",
            "ME",
            "MK",
            "RS",
            "SI",
            "KR",
            "BD",
            "PK",
            "LK",
            "GH",
            "KE",
            "NG",
            "TZ",
            "UG",
            "AG",
            "AM",
            "BS",
            "BB",
            "BZ",
            "BT",
            "BW",
            "BF",
            "CV",
            "CW",
            "DM",
            "FJ",
            "GM",
            "GE",
            "GD",
            "GW",
            "GY",
            "HT",
            "JM",
            "KI",
            "LS",
            "LR",
            "MW",
            "MV",
            "ML",
            "MH",
            "FM",
            "NA",
            "NR",
            "NE",
            "PW",
            "PG",
            "PR",
            "WS",
            "SM",
            "ST",
            "SN",
            "SC",
            "SL",
            "SB",
            "KN",
            "LC",
            "VC",
            "SR",
            "TL",
            "TO",
            "TT",
            "TV",
            "VU",
            "AZ",
            "BN",
            "BI",
            "KH",
            "CM",
            "TD",
            "KM",
            "GQ",
            "SZ",
            "GA",
            "GN",
            "KG",
            "LA",
            "MO",
            "MR",
            "MN",
            "NP",
            "RW",
            "TG",
            "UZ",
            "ZW",
            "BJ",
            "MG",
            "MU",
            "MZ",
            "AO",
            "CI",
            "DJ",
            "ZM",
            "CD",
            "CG",
            "IQ",
            "LY",
            "TJ",
            "VE",
            "ET",
            "XK"
          ],
          "external_urls": {
            "spotify": "https://open.spotify.com/album/3BYf1IG8EqDbhzdpljcFWY"
          },
          "href": "https://api.spotify.com/v1/albums/3BYf1IG8EqDbhzdpljcFWY",
          "id": "3BYf1IG8EqDbhzdpljcFWY",
          "images": [
            {
              "height": 640,
              "width": 640,
              "url": "https://i.scdn.co/image/ab67616d0000b273ac9dd449e38e5e8952fd22ad"
            },
            {
              "height": 300,
              "width": 300,
              "url": "https://i.scdn.co/image/ab67616d00001e02ac9dd449e38e5e8952fd22ad"
            },
            {
              "height": 64,
              "width": 64,
              "url": "https://i.scdn.co/image/ab67616d00004851ac9dd449e38e5e8952fd22ad"
            }
          ],
          "is_playable": true,
          "name": "Otherside",
          "release_date": "2024-10-02",
          "release_date_precision": "day",
          "total_tracks": 2,
          "type": "album",
          "uri": "spotify:album:3BYf1IG8EqDbhzdpljcFWY"
        },
        "artists": [
          {
            "external_urls": {
              "spotify": "https://open.spotify.com/artist/7zrkALJ9ayRjzysp4QYoEg"
            },
            "href": "https://api.spotify.com/v1/artists/7zrkALJ9ayRjzysp4QYoEg",
            "id": "7zrkALJ9ayRjzysp4QYoEg",
            "name": "Maribou State",
            "type": "artist",
            "uri": "spotify:artist:7zrkALJ9ayRjzysp4QYoEg"
          },
          {
            "external_urls": {
              "spotify": "https://open.spotify.com/artist/5vssQp6TyMHsx4mihKVAsC"
            },
            "href": "https://api.spotify.com/v1/artists/5vssQp6TyMHsx4mihKVAsC",
            "id": "5vssQp6TyMHsx4mihKVAsC",
            "name": "Holly Walker",
            "type": "artist",
            "uri": "spotify:artist:5vssQp6TyMHsx4mihKVAsC"
          }
        ],
        "available_markets": [
          "AR",
          "AU",
          "AT",
          "BE",
          "BO",
          "BR",
          "BG",
          "CA",
          "CL",
          "CO",
          "CR",
          "CY",
          "CZ",
          "DK",
          "DO",
          "DE",
          "EC",
          "EE",
          "SV",
          "FI",
          "FR",
          "GR",
          "GT",
          "HN",
          "HK",
          "HU",
          "IS",
          "IE",
          "IT",
          "LV",
          "LT",
          "LU",
          "MY",
          "MT",
          "MX",
          "NL",
          "NZ",
          "NI",
          "NO",
          "PA",
          "PY",
          "PE",
          "PH",
          "PL",
          "PT",
          "SG",
          "SK",
          "ES",
          "SE",
          "CH",
          "TW",
          "TR",
          "UY",
          "US",
          "GB",
          "AD",
          "LI",
          "MC",
          "ID",
          "JP",
          "TH",
          "VN",
          "RO",
          "IL",
          "ZA",
          "SA",
          "AE",
          "BH",
          "QA",
          "OM",
          "KW",
          "EG",
          "MA",
          "DZ",
          "TN",
          "LB",
          "JO",
          "PS",
          "IN",
          "BY",
          "KZ",
          "MD",
          "UA",
          "AL",
          "BA",
          "HR",
          "ME",
          "MK",
          "RS",
          "SI",
          "KR",
          "BD",
          "PK",
          "LK",
          "GH",
          "KE",
          "NG",
          "TZ",
          "UG",
          "AG",
          "AM",
          "BS",
          "BB",
          "BZ",
          "BT",
          "BW",
          "BF",
          "CV",
          "CW",
          "DM",
          "FJ",
          "GM",
          "GE",
          "GD",
          "GW",
          "GY",
          "HT",
          "JM",
          "KI",
          "LS",
          "LR",
          "MW",
          "MV",
          "ML",
          "MH",
          "FM",
          "NA",
          "NR",
          "NE",
          "PW",
          "PG",
          "PR",
          "WS",
          "SM",
          "ST",
          "SN",
          "SC",
          "SL",
          "SB",
          "KN",
          "LC",
          "VC",
          "SR",
          "TL",
          "TO",
          "TT",
          "TV",
          "VU",
          "AZ",
          "BN",
          "BI",
          "KH",
          "CM",
          "TD",
          "KM",
          "GQ",
          "SZ",
          "GA",
          "GN",
          "KG",
          "LA",
          "MO",
          "MR",
          "MN",
          "NP",
          "RW",
          "TG",
          "UZ",
          "ZW",
          "BJ",
          "MG",
          "MU",
          "MZ",
          "AO",
          "CI",
          "DJ",
          "ZM",
          "CD",
          "CG",
          "IQ",
          "LY",
          "TJ",
          "VE",
          "ET",
          "XK"
        ],
        "disc_number": 1,
        "duration_ms": 233211,
        "explicit": false,
        "external_ids": {
          "isrc": "GBCFB2300767"
        },
        "external_urls": {
          "spotify": "https://open.spotify.com/track/2pj2A25YQK4uMxhZheNx7R"
        },
        "href": "https://api.spotify.com/v1/tracks/2pj2A25YQK4uMxhZheNx7R",
        "id": "2pj2A25YQK4uMxhZheNx7R",
        "is_local": false,
        "is_playable": true,
        "name": "Otherside",
        "popularity": 47,
        "preview_url": "https://p.scdn.co/mp3-preview/f18011c5d9a973f85ed8dce6d698e6043efdcf60?cid=cfe923b2d660439caf2b557b21f31221",
        "track_number": 1,
        "type": "track",
        "uri": "spotify:track:2pj2A25YQK4uMxhZheNx7R"
      }
    },
    {
      "added_at": "2024-10-06T07:37:53Z",
      "track": {
        "album": {
          "album_type": "single",
          "artists": [
            {
              "external_urls": {
                "spotify": "https://open.spotify.com/artist/0HHa7ZJZxUQlg5l2mB0N0f"
              },
              "href": "https://api.spotify.com/v1/artists/0HHa7ZJZxUQlg5l2mB0N0f",
              "id": "0HHa7ZJZxUQlg5l2mB0N0f",
              "name": "Marlon Hoffstadt",
              "type": "artist",
              "uri": "spotify:artist:0HHa7ZJZxUQlg5l2mB0N0f"
            },
            {
              "external_urls": {
                "spotify": "https://open.spotify.com/artist/68sTQgQtPe9e4Bb7OtoqET"
              },
              "href": "https://api.spotify.com/v1/artists/68sTQgQtPe9e4Bb7OtoqET",
              "id": "68sTQgQtPe9e4Bb7OtoqET",
              "name": "Crybaby",
              "type": "artist",
              "uri": "spotify:artist:68sTQgQtPe9e4Bb7OtoqET"
            },
            {
              "external_urls": {
                "spotify": "https://open.spotify.com/artist/4lBSzo2LS8asEzoePv6VLM"
              },
              "href": "https://api.spotify.com/v1/artists/4lBSzo2LS8asEzoePv6VLM",
              "id": "4lBSzo2LS8asEzoePv6VLM",
              "name": "DJ Daddy Trance",
              "type": "artist",
              "uri": "spotify:artist:4lBSzo2LS8asEzoePv6VLM"
            }
          ],
          "available_markets": [
            "AR",
            "AU",
            "AT",
            "BE",
            "BO",
            "BR",
            "BG",
            "CA",
            "CL",
            "CO",
            "CR",
            "CY",
            "CZ",
            "DK",
            "DO",
            "DE",
            "EC",
            "EE",
            "SV",
            "FI",
            "FR",
            "GR",
            "GT",
            "HN",
            "HK",
            "HU",
            "IS",
            "IE",
            "IT",
            "LV",
            "LT",
            "LU",
            "MY",
            "MT",
            "MX",
            "NL",
            "NZ",
            "NI",
            "NO",
            "PA",
            "PY",
            "PE",
            "PH",
            "PL",
            "PT",
            "SG",
            "SK",
            "ES",
            "SE",
            "CH",
            "TW",
            "TR",
            "UY",
            "US",
            "GB",
            "AD",
            "LI",
            "MC",
            "ID",
            "JP",
            "TH",
            "VN",
            "RO",
            "IL",
            "ZA",
            "SA",
            "AE",
            "BH",
            "QA",
            "OM",
            "KW",
            "EG",
            "MA",
            "DZ",
            "TN",
            "LB",
            "JO",
            "PS",
            "IN",
            "BY",
            "KZ",
            "MD",
            "UA",
            "AL",
            "BA",
            "HR",
            "ME",
            "MK",
            "RS",
            "SI",
            "KR",
            "BD",
            "PK",
            "LK",
            "GH",
            "KE",
            "NG",
            "TZ",
            "UG",
            "AG",
            "AM",
            "BS",
            "BB",
            "BZ",
            "BT",
            "BW",
            "BF",
            "CV",
            "CW",
            "DM",
            "FJ",
            "GM",
            "GE",
            "GD",
            "GW",
            "GY",
            "HT",
            "JM",
            "KI",
            "LS",
            "LR",
            "MW",
            "MV",
            "ML",
            "MH",
            "FM",
            "NA",
            "NR",
            "NE",
            "PW",
            "PG",
            "PR",
            "WS",
            "SM",
            "ST",
            "SN",
            "SC",
            "SL",
            "SB",
            "KN",
            "LC",
            "VC",
            "SR",
            "TL",
            "TO",
            "TT",
            "TV",
            "VU",
            "AZ",
            "BN",
            "BI",
            "KH",
            "CM",
            "TD",
            "KM",
            "GQ",
            "SZ",
            "GA",
            "GN",
            "KG",
            "LA",
            "MO",
            "MR",
            "MN",
            "NP",
            "RW",
            "TG",
            "UZ",
            "ZW",
            "BJ",
            "MG",
            "MU",
            "MZ",
            "AO",
            "CI",
            "DJ",
            "ZM",
            "CD",
            "CG",
            "IQ",
            "LY",
            "TJ",
            "VE",
            "ET",
            "XK"
          ],
          "external_urls": {
            "spotify": "https://open.spotify.com/album/1ElP3WFqq5sgMcc3ScIR4l"
          },
          "href": "https://api.spotify.com/v1/albums/1ElP3WFqq5sgMcc3ScIR4l",
          "id": "1ElP3WFqq5sgMcc3ScIR4l",
          "images": [
            {
              "height": 640,
              "width": 640,
              "url": "https://i.scdn.co/image/ab67616d0000b2733d710ab088ff797e80cc5aed"
            },
            {
              "height": 300,
              "width": 300,
              "url": "https://i.scdn.co/image/ab67616d00001e023d710ab088ff797e80cc5aed"
            },
            {
              "height": 64,
              "width": 64,
              "url": "https://i.scdn.co/image/ab67616d000048513d710ab088ff797e80cc5aed"
            }
          ],
          "is_playable": true,
          "name": "I Think I Need A DJ",
          "release_date": "2024-09-20",
          "release_date_precision": "day",
          "total_tracks": 1,
          "type": "album",
          "uri": "spotify:album:1ElP3WFqq5sgMcc3ScIR4l"
        },
        "artists": [
          {
            "external_urls": {
              "spotify": "https://open.spotify.com/artist/0HHa7ZJZxUQlg5l2mB0N0f"
            },
            "href": "https://api.spotify.com/v1/artists/0HHa7ZJZxUQlg5l2mB0N0f",
            "id": "0HHa7ZJZxUQlg5l2mB0N0f",
            "name": "Marlon Hoffstadt",
            "type": "artist",
            "uri": "spotify:artist:0HHa7ZJZxUQlg5l2mB0N0f"
          },
          {
            "external_urls": {
              "spotify": "https://open.spotify.com/artist/68sTQgQtPe9e4Bb7OtoqET"
            },
            "href": "https://api.spotify.com/v1/artists/68sTQgQtPe9e4Bb7OtoqET",
            "id": "68sTQgQtPe9e4Bb7OtoqET",
            "name": "Crybaby",
            "type": "artist",
            "uri": "spotify:artist:68sTQgQtPe9e4Bb7OtoqET"
          },
          {
            "external_urls": {
              "spotify": "https://open.spotify.com/artist/4lBSzo2LS8asEzoePv6VLM"
            },
            "href": "https://api.spotify.com/v1/artists/4lBSzo2LS8asEzoePv6VLM",
            "id": "4lBSzo2LS8asEzoePv6VLM",
            "name": "DJ Daddy Trance",
            "type": "artist",
            "uri": "spotify:artist:4lBSzo2LS8asEzoePv6VLM"
          }
        ],
        "available_markets": [
          "AR",
          "AU",
          "AT",
          "BE",
          "BO",
          "BR",
          "BG",
          "CA",
          "CL",
          "CO",
          "CR",
          "CY",
          "CZ",
          "DK",
          "DO",
          "DE",
          "EC",
          "EE",
          "SV",
          "FI",
          "FR",
          "GR",
          "GT",
          "HN",
          "HK",
          "HU",
          "IS",
          "IE",
          "IT",
          "LV",
          "LT",
          "LU",
          "MY",
          "MT",
          "MX",
          "NL",
          "NZ",
          "NI",
          "NO",
          "PA",
          "PY",
          "PE",
          "PH",
          "PL",
          "PT",
          "SG",
          "SK",
          "ES",
          "SE",
          "CH",
          "TW",
          "TR",
          "UY",
          "US",
          "GB",
          "AD",
          "LI",
          "MC",
          "ID",
          "JP",
          "TH",
          "VN",
          "RO",
          "IL",
          "ZA",
          "SA",
          "AE",
          "BH",
          "QA",
          "OM",
          "KW",
          "EG",
          "MA",
          "DZ",
          "TN",
          "LB",
          "JO",
          "PS",
          "IN",
          "BY",
          "KZ",
          "MD",
          "UA",
          "AL",
          "BA",
          "HR",
          "ME",
          "MK",
          "RS",
          "SI",
          "KR",
          "BD",
          "PK",
          "LK",
          "GH",
          "KE",
          "NG",
          "TZ",
          "UG",
          "AG",
          "AM",
          "BS",
          "BB",
          "BZ",
          "BT",
          "BW",
          "BF",
          "CV",
          "CW",
          "DM",
          "FJ",
          "GM",
          "GE",
          "GD",
          "GW",
          "GY",
          "HT",
          "JM",
          "KI",
          "LS",
          "LR",
          "MW",
          "MV",
          "ML",
          "MH",
          "FM",
          "NA",
          "NR",
          "NE",
          "PW",
          "PG",
          "PR",
          "WS",
          "SM",
          "ST",
          "SN",
          "SC",
          "SL",
          "SB",
          "KN",
          "LC",
          "VC",
          "SR",
          "TL",
          "TO",
          "TT",
          "TV",
          "VU",
          "AZ",
          "BN",
          "BI",
          "KH",
          "CM",
          "TD",
          "KM",
          "GQ",
          "SZ",
          "GA",
          "GN",
          "KG",
          "LA",
          "MO",
          "MR",
          "MN",
          "NP",
          "RW",
          "TG",
          "UZ",
          "ZW",
          "BJ",
          "MG",
          "MU",
          "MZ",
          "AO",
          "CI",
          "DJ",
          "ZM",
          "CD",
          "CG",
          "IQ",
          "LY",
          "TJ",
          "VE",
          "ET",
          "XK"
        ],
        "disc_number": 1,
        "duration_ms": 155000,
        "explicit": false,
        "external_ids": {
          "isrc": "DEKF22400978"
        },
        "external_urls": {
          "spotify": "https://open.spotify.com/track/2lKOI1nwP5qZtZC7TGQVY8"
        },
        "href": "https://api.spotify.com/v1/tracks/2lKOI1nwP5qZtZC7TGQVY8",
        "id": "2lKOI1nwP5qZtZC7TGQVY8",
        "is_local": false,
        "is_playable": true,
        "name": "I Think I Need A DJ",
        "popularity": 53,
        "preview_url": "https://p.scdn.co/mp3-preview/ad1c9d47d0f5ed500118e9dfc2558bd77612cae3?cid=cfe923b2d660439caf2b557b21f31221",
        "track_number": 1,
        "type": "track",
        "uri": "spotify:track:2lKOI1nwP5qZtZC7TGQVY8"
      }
    }
  ],
  "limit": 2,
  "next": "https://api.spotify.com/v1/me/tracks?offset=20&limit=20&locale=en-US,en;q%3D0.5",
  "offset": 0,
  "previous": null,
  "total": 4816
}
