{
  "href": "https://api.spotify.com/v1/shows/0e30iIgSffe6xJhFKe35Db/episodes?offset=0&limit=20&locale=en-US,en;q%3D0.5",
  "items": [
    {
      "audio_preview_url": "https://podz-content.spotifycdn.com/audio/clips/2O4OLlf7wsvLzCeUbNB3UK/clip_1204000_1256300.mp3",
      "description": "The Great War of 2077 and how the Fallout world diverged from our own.Sponsors: Patreon: Become a patron! https://patreon.com/falloutlorecastBuy cool stuff and support the show!Fallout 76: https://amzn.to/3h99B3UFallout Cookbook: https://amzn.to/3aGjeodFallout Boardgame: https://amzn.to/2EgmBq3The Art of Fallout 4: https://amzn.to/3gfQST3Get a REAL Nuca-Cola Quantum! https://amzn.to/322O3zGFallout Funco Pop Figures: https://amzn.to/3gcYsOcLinks: Live Shows every Monday Night and game streams: twitch.tv/robotsradioFallout Hub Podcast w/ Tom & others: https://anchor.fm/the-fallout-hubTalk Fallout and join the Robots Radio fam: Discord: discord.gg/JXKfVhMStay plugged in on Twitter: twitter.com/falloutlorecastRobots Radio Youtube: youtube.com/c/r0b0tsSend me a note! Email: falloutlorecast@gmail.com www.robotsradio.netOur Sponsors:* Check out  Bandai Namco: unknown9.com/FALLOUTLOREAdvertising Inquiries: https://redcircle.com/brandsPrivacy & Opt-Out: https://redcircle.com/privacy",
      "duration_ms": 2117616,
      "explicit": false,
      "external_urls": {
        "spotify": "https://open.spotify.com/episode/3ssmxnilHYaKhwRWoBGMbU"
      },
      "href": "https://api.spotify.com/v1/episodes/3ssmxnilHYaKhwRWoBGMbU",
      "html_description": "<p>The Great War of 2077 and how the Fallout world diverged from our own.</p><p>Sponsors: Patreon: Become a patron! https://patreon.com/falloutlorecast</p><p>Buy cool stuff and support the show!</p><p>Fallout 76: https://amzn.to/3h99B3U</p><p>Fallout Cookbook: https://amzn.to/3aGjeod</p><p>Fallout Boardgame: https://amzn.to/2EgmBq3</p><p>The Art of Fallout 4: https://amzn.to/3gfQST3</p><p>Get a REAL Nuca-Cola Quantum! https://amzn.to/322O3zG</p><p>Fallout Funco Pop Figures: https://amzn.to/3gcYsOc</p><p>Links: Live Shows every Monday Night and game streams: twitch.tv/robotsradio</p><p>Fallout Hub Podcast w/ Tom &amp; others: https://anchor.fm/the-fallout-hub</p><p>Talk Fallout and join the Robots Radio fam: Discord: discord.gg/JXKfVhM</p><p>Stay plugged in on Twitter: twitter.com/falloutlorecast</p><p>Robots Radio Youtube: youtube.com/c/r0b0ts</p><p>Send me a note! Email: falloutlorecast&#64;gmail.com www.robotsradio.net</p><br /><br />Our Sponsors:<br />* Check out  Bandai Namco: unknown9.com/FALLOUTLORE<br /><br /><br />Advertising Inquiries: <a href=\"https://redcircle.com/brands\" rel=\"nofollow\">https://redcircle.com/brands</a><br /><br />Privacy &amp; Opt-Out: <a href=\"https://redcircle.com/privacy\" rel=\"nofollow\">https://redcircle.com/privacy</a>",
      "id": "3ssmxnilHYaKhwRWoBGMbU",
      "images": [
        {
          "height": 640,
          "url": "https://i.scdn.co/image/ab6765630000ba8af44e9ef63c2d6fb44cb0c9bf",
          "width": 640
        },
        {
          "height": 300,
          "url": "https://i.scdn.co/image/ab67656300005f1ff44e9ef63c2d6fb44cb0c9bf",
          "width": 300
        },
        {
          "height": 64,
          "url": "https://i.scdn.co/image/ab6765630000f68df44e9ef63c2d6fb44cb0c9bf",
          "width": 64
        }
      ],
      "is_externally_hosted": false,
      "is_playable": true,
      "language": "en-US",
      "languages": ["en-US"],
      "name": "The Great War - Fallout Lorecast EP 1",
      "release_date": "2019-01-09",
      "release_date_precision": "day",
      "resume_point": {
        "fully_played": false,
        "resume_position_ms": 0
      },
      "type": "episode",
      "uri": "spotify:episode:3ssmxnilHYaKhwRWoBGMbU"
    },
    {
      "audio_preview_url": "https://podz-content.spotifycdn.com/audio/clips/0PGDORXTYiO2Til9131l6X/clip_310950_371500.mp3",
      "description": "Support the show to keep it going, plus get great rewards at patreon.com/falloutlorecast Sponsors: Patreon: Become a patron! https://patreon.com/falloutlorecast Audiobooks.com - Get 3 FREE Audiobooks! https://www.dpbolvw.net/click-100173810-11099382?sid=flore Gamefly - Want 2 months of rentals for the price of 1 at Gamefly? https://www.dpbolvw.net/click-100173810-10495782?sid=flore Loot Crate - 15% off Loot Crate. Click the link and use coupon code: ROBOTSRADIO https://www.dpbolvw.net/click-100173810-13902093?sid=flore GreenMan Gaming - Get awesome discounts on games. https://www.dpbolvw.net/click-100173810-13764551?sid=flore NordVPN - Stay Safe on the Internet and get 68% off. https://www.dpbolvw.net/click-100173810-12814552?sid=flore Buy cool stuff and support the show! Fallout 76: https://amzn.to/3h99B3U Fallout Cookbook: https://amzn.to/3aGjeod Fallout Boardgame: https://amzn.to/2EgmBq3 The Art of Fallout 4: https://amzn.to/3gfQST3 Get a REAL Nuca-Cola Quantum! https://amzn.to/322O3zG Fallout Funco Pop Figures: https://amzn.to/3gcYsOc Links: Live Shows every Monday Night and game streams: twitch.tv/robotsradio Fallout Hub Podcast w/ Tom & others: https://anchor.fm/the-fallout-hub Talk Fallout and join the Robots Radio fam: Discord: discord.gg/JXKfVhM Stay plugged in on Twitter: twitter.com/falloutlorecast Robots Radio Youtube: youtube.com/c/r0b0ts Send me a note! Email: falloutlorecast@gmail.com www.robotsradio.netOur Sponsors:* Check out  Bandai Namco: unknown9.com/FALLOUTLOREAdvertising Inquiries: https://redcircle.com/brandsPrivacy & Opt-Out: https://redcircle.com/privacy",
      "duration_ms": 2376881,
      "explicit": false,
      "external_urls": {
        "spotify": "https://open.spotify.com/episode/1bbj9aqeeZ3UMUlcWN0S03"
      },
      "href": "https://api.spotify.com/v1/episodes/1bbj9aqeeZ3UMUlcWN0S03",
      "html_description": "<p>Support the show to keep it going, plus get great rewards at patreon.com/falloutlorecast Sponsors: Patreon: Become a patron! https://patreon.com/falloutlorecast Audiobooks.com - Get 3 FREE Audiobooks! https://www.dpbolvw.net/click-100173810-11099382?sid&#61;flore Gamefly - Want 2 months of rentals for the price of 1 at Gamefly? https://www.dpbolvw.net/click-100173810-10495782?sid&#61;flore Loot Crate - 15% off Loot Crate. Click the link and use coupon code: ROBOTSRADIO https://www.dpbolvw.net/click-100173810-13902093?sid&#61;flore GreenMan Gaming - Get awesome discounts on games. https://www.dpbolvw.net/click-100173810-13764551?sid&#61;flore NordVPN - Stay Safe on the Internet and get 68% off. https://www.dpbolvw.net/click-100173810-12814552?sid&#61;flore Buy cool stuff and support the show! Fallout 76: https://amzn.to/3h99B3U Fallout Cookbook: https://amzn.to/3aGjeod Fallout Boardgame: https://amzn.to/2EgmBq3 The Art of Fallout 4: https://amzn.to/3gfQST3 Get a REAL Nuca-Cola Quantum! https://amzn.to/322O3zG Fallout Funco Pop Figures: https://amzn.to/3gcYsOc Links: Live Shows every Monday Night and game streams: twitch.tv/robotsradio Fallout Hub Podcast w/ Tom &amp; others: https://anchor.fm/the-fallout-hub Talk Fallout and join the Robots Radio fam: Discord: discord.gg/JXKfVhM Stay plugged in on Twitter: twitter.com/falloutlorecast Robots Radio Youtube: youtube.com/c/r0b0ts Send me a note! Email: falloutlorecast&#64;gmail.com www.robotsradio.net</p><br /><br />Our Sponsors:<br />* Check out  Bandai Namco: unknown9.com/FALLOUTLORE<br /><br /><br />Advertising Inquiries: <a href=\"https://redcircle.com/brands\" rel=\"nofollow\">https://redcircle.com/brands</a><br /><br />Privacy &amp; Opt-Out: <a href=\"https://redcircle.com/privacy\" rel=\"nofollow\">https://redcircle.com/privacy</a>",
      "id": "1bbj9aqeeZ3UMUlcWN0S03",
      "images": [
        {
          "height": 640,
          "url": "https://i.scdn.co/image/ab6765630000ba8a655b54a66471089d27dbb03f",
          "width": 640
        },
        {
          "height": 300,
          "url": "https://i.scdn.co/image/ab67656300005f1f655b54a66471089d27dbb03f",
          "width": 300
        },
        {
          "height": 64,
          "url": "https://i.scdn.co/image/ab6765630000f68d655b54a66471089d27dbb03f",
          "width": 64
        }
      ],
      "is_externally_hosted": false,
      "is_playable": true,
      "language": "en-US",
      "languages": ["en-US"],
      "name": "Who Dropped the First Bomb?",
      "release_date": "2019-01-15",
      "release_date_precision": "day",
      "resume_point": {
        "fully_played": false,
        "resume_position_ms": 0
      },
      "type": "episode",
      "uri": "spotify:episode:1bbj9aqeeZ3UMUlcWN0S03"
    }
  ],
  "limit": 20,
  "next": "https://api.spotify.com/v1/shows/0e30iIgSffe6xJhFKe35Db/episodes?offset=20&limit=20&locale=en-US,en;q%3D0.5",
  "offset": 0,
  "previous": null,
  "total": 323
}
